Pipelined-design/waveform.vcd
$date
	Fri Jun 06 15:37:37 2025
$end
$version
	Icarus Verilog
$end
$timescale
	1ps
$end
$scope module test_cpu $end
$var reg 1 ! clk $end
$var reg 1 " rst $end
$scope module CPU $end
$var wire 1 ! clk $end
$var wire 1 " rst $end
$var wire 1 # wb_writeReg $end
$var wire 32 $ wb_rdData [31:0] $end
$var wire 5 % wb_rd [4:0] $end
$var wire 32 & wb_outMem [31:0] $end
$var wire 32 ' wb_outAlu [31:0] $end
$var wire 1 ( wb_aluOut_WB_memOut $end
$var wire 1 ) pause $end
$var wire 1 * me_writeReg $end
$var wire 2 + me_writeMem [1:0] $end
$var wire 32 , me_true_rs2Data [31:0] $end
$var wire 32 - me_rs2Data [31:0] $end
$var wire 5 . me_rs2 [4:0] $end
$var wire 32 / me_rs1Imm [31:0] $end
$var wire 3 0 me_readMem [2:0] $end
$var wire 5 1 me_rd [4:0] $end
$var wire 2 2 me_pcImm_NEXTPC_rs1Imm [1:0] $end
$var wire 32 3 me_pcImm [31:0] $end
$var wire 32 4 me_outMem [31:0] $end
$var wire 32 5 me_outAlu [31:0] $end
$var wire 1 6 me_conditionBranch $end
$var wire 1 7 me_aluOut_WB_memOut $end
$var wire 32 8 if_pc4 [31:0] $end
$var wire 32 9 if_pc [31:0] $end
$var wire 32 : if_nextPc [31:0] $end
$var wire 32 ; if_instr [31:0] $end
$var wire 1 < id_writeReg $end
$var wire 2 = id_writeMem [1:0] $end
$var wire 2 > id_rs2Data_EX_imm32_4 [1:0] $end
$var wire 32 ? id_rs2Data [31:0] $end
$var wire 5 @ id_rs2 [4:0] $end
$var wire 1 A id_rs1Data_EX_PC $end
$var wire 32 B id_rs1Data [31:0] $end
$var wire 5 C id_rs1 [4:0] $end
$var wire 3 D id_readMem [2:0] $end
$var wire 5 E id_rd [4:0] $end
$var wire 2 F id_pcImm_NEXTPC_rs1Imm [1:0] $end
$var wire 32 G id_pc [31:0] $end
$var wire 7 H id_opcode [6:0] $end
$var wire 32 I id_instr [31:0] $end
$var wire 32 J id_imm32 [31:0] $end
$var wire 7 K id_func7 [6:0] $end
$var wire 3 L id_func3 [2:0] $end
$var wire 3 M id_extOP [2:0] $end
$var wire 5 N id_aluc [4:0] $end
$var wire 1 O id_aluOut_WB_memOut $end
$var wire 1 P forwardC $end
$var wire 2 Q forwardB [1:0] $end
$var wire 2 R forwardA [1:0] $end
$var wire 1 S flush $end
$var wire 1 T ex_writeReg $end
$var wire 2 U ex_writeMem [1:0] $end
$var wire 32 V ex_true_rs2Data [31:0] $end
$var wire 32 W ex_true_rs1Data [31:0] $end
$var wire 2 X ex_rs2Data_EX_imm32_4 [1:0] $end
$var wire 32 Y ex_rs2Data [31:0] $end
$var wire 5 Z ex_rs2 [4:0] $end
$var wire 32 [ ex_rs1Imm [31:0] $end
$var wire 1 \ ex_rs1Data_EX_PC $end
$var wire 32 ] ex_rs1Data [31:0] $end
$var wire 5 ^ ex_rs1 [4:0] $end
$var wire 3 _ ex_readMem [2:0] $end
$var wire 5 ` ex_rd [4:0] $end
$var wire 2 a ex_pcImm_NEXTPC_rs1Imm [1:0] $end
$var wire 32 b ex_pcImm [31:0] $end
$var wire 32 c ex_pc [31:0] $end
$var wire 32 d ex_outAlu [31:0] $end
$var wire 32 e ex_inAluB [31:0] $end
$var wire 32 f ex_inAluA [31:0] $end
$var wire 32 g ex_imm32 [31:0] $end
$var wire 1 h ex_conditionBranch $end
$var wire 5 i ex_aluc [4:0] $end
$var wire 1 j ex_aluOut_WB_memOut $end
$scope module ADD_4 $end
$var wire 32 k pc_4 [31:0] $end
$var wire 32 l pc [31:0] $end
$upscope $end
$scope module ADD_PC $end
$var wire 32 m rs1Data [31:0] $end
$var wire 32 n pc [31:0] $end
$var wire 32 o imm32 [31:0] $end
$var reg 32 p pcImm [31:0] $end
$var reg 32 q rs1Imm [31:0] $end
$upscope $end
$scope module ALU $end
$var wire 32 r b [31:0] $end
$var wire 5 s aluc [4:0] $end
$var wire 32 t a [31:0] $end
$var reg 1 h condition_branch $end
$var reg 32 u out [31:0] $end
$upscope $end
$scope module CONTROLLER $end
$var wire 7 v opcode [6:0] $end
$var wire 7 w func7 [6:0] $end
$var wire 3 x func3 [2:0] $end
$var reg 1 O aluOut_WB_memOut $end
$var reg 5 y aluc [4:0] $end
$var reg 3 z extOP [2:0] $end
$var reg 2 { pcImm_NEXTPC_rs1Imm [1:0] $end
$var reg 3 | read_mem [2:0] $end
$var reg 1 A rs1Data_EX_PC $end
$var reg 2 } rs2Data_EX_imm32_4 [1:0] $end
$var reg 2 ~ write_mem [1:0] $end
$var reg 1 < write_reg $end
$upscope $end
$scope module DATA_MEM $end
$var wire 1 ! clk $end
$var wire 1 " rst $end
$var wire 2 !" write_mem [1:0] $end
$var wire 32 "" write_data [31:0] $end
$var wire 3 #" read_mem [2:0] $end
$var wire 32 $" address [31:0] $end
$var reg 32 %" out_mem [31:0] $end
$upscope $end
$scope module EX_ME $end
$var wire 1 ! clk $end
$var wire 1 h ex_conditionBranch $end
$var wire 32 &" ex_outAlu [31:0] $end
$var wire 32 '" ex_pcImm [31:0] $end
$var wire 32 (" ex_rs1Imm [31:0] $end
$var wire 1 " rst $end
$var wire 1 S flush $end
$var wire 1 T ex_writeReg $end
$var wire 2 )" ex_writeMem [1:0] $end
$var wire 32 *" ex_rs2Data [31:0] $end
$var wire 5 +" ex_rs2 [4:0] $end
$var wire 3 ," ex_readMem [2:0] $end
$var wire 5 -" ex_rd [4:0] $end
$var wire 2 ." ex_pcImm_NEXTPC_rs1Imm [1:0] $end
$var wire 1 j ex_aluOut_WB_memOut $end
$var reg 1 7 me_aluOut_WB_memOut $end
$var reg 1 6 me_conditionBranch $end
$var reg 32 /" me_outAlu [31:0] $end
$var reg 32 0" me_pcImm [31:0] $end
$var reg 2 1" me_pcImm_NEXTPC_rs1Imm [1:0] $end
$var reg 5 2" me_rd [4:0] $end
$var reg 3 3" me_readMem [2:0] $end
$var reg 32 4" me_rs1Imm [31:0] $end
$var reg 5 5" me_rs2 [4:0] $end
$var reg 32 6" me_rs2Data [31:0] $end
$var reg 2 7" me_writeMem [1:0] $end
$var reg 1 * me_writeReg $end
$upscope $end
$scope module FORWARD_UNIT $end
$var wire 5 8" me_rd [4:0] $end
$var wire 5 9" me_rs2 [4:0] $end
$var wire 1 * me_writeReg $end
$var wire 1 # wb_writeReg $end
$var wire 5 :" wb_rd [4:0] $end
$var wire 5 ;" ex_rs2 [4:0] $end
$var wire 5 <" ex_rs1 [4:0] $end
$var reg 2 =" ex_forwardA [1:0] $end
$var reg 2 >" ex_forwardB [1:0] $end
$var reg 1 P me_forwardC $end
$upscope $end
$scope module HAZARD_DETECTION_UNIT $end
$var wire 5 ?" id_rs2 [4:0] $end
$var wire 5 @" id_rs1 [4:0] $end
$var wire 3 A" ex_readMem [2:0] $end
$var wire 5 B" ex_rd [4:0] $end
$var reg 1 ) pause $end
$upscope $end
$scope module ID $end
$var wire 5 C" rs2 [4:0] $end
$var wire 5 D" rs1 [4:0] $end
$var wire 5 E" rd [4:0] $end
$var wire 7 F" opcode [6:0] $end
$var wire 32 G" instr [31:0] $end
$var wire 7 H" func7 [6:0] $end
$var wire 3 I" func3 [2:0] $end
$upscope $end
$scope module ID_EX $end
$var wire 1 ! clk $end
$var wire 1 O id_aluOut_WB_memOut $end
$var wire 5 J" id_aluc [4:0] $end
$var wire 2 K" id_pcImm_NEXTPC_rs1Imm [1:0] $end
$var wire 5 L" id_rd [4:0] $end
$var wire 3 M" id_readMem [2:0] $end
$var wire 5 N" id_rs1 [4:0] $end
$var wire 1 A id_rs1Data_EX_PC $end
$var wire 5 O" id_rs2 [4:0] $end
$var wire 2 P" id_rs2Data_EX_imm32_4 [1:0] $end
$var wire 2 Q" id_writeMem [1:0] $end
$var wire 1 < id_writeReg $end
$var wire 1 ) pause $end
$var wire 1 " rst $end
$var wire 32 R" id_rs2Data [31:0] $end
$var wire 32 S" id_rs1Data [31:0] $end
$var wire 32 T" id_pc [31:0] $end
$var wire 32 U" id_imm32 [31:0] $end
$var wire 1 S flush $end
$var reg 1 j ex_aluOut_WB_memOut $end
$var reg 5 V" ex_aluc [4:0] $end
$var reg 32 W" ex_imm32 [31:0] $end
$var reg 32 X" ex_pc [31:0] $end
$var reg 2 Y" ex_pcImm_NEXTPC_rs1Imm [1:0] $end
$var reg 5 Z" ex_rd [4:0] $end
$var reg 3 [" ex_readMem [2:0] $end
$var reg 5 \" ex_rs1 [4:0] $end
$var reg 32 ]" ex_rs1Data [31:0] $end
$var reg 1 \ ex_rs1Data_EX_PC $end
$var reg 5 ^" ex_rs2 [4:0] $end
$var reg 32 _" ex_rs2Data [31:0] $end
$var reg 2 `" ex_rs2Data_EX_imm32_4 [1:0] $end
$var reg 2 a" ex_writeMem [1:0] $end
$var reg 1 T ex_writeReg $end
$upscope $end
$scope module IF_ID $end
$var wire 1 ! clk $end
$var wire 1 ) pause $end
$var wire 1 " rst $end
$var wire 32 b" if_pc [31:0] $end
$var wire 32 c" if_instr [31:0] $end
$var wire 1 S flush $end
$var reg 32 d" id_instr [31:0] $end
$var reg 32 e" id_pc [31:0] $end
$upscope $end
$scope module IMM $end
$var wire 3 f" extOP [2:0] $end
$var wire 32 g" instr [31:0] $end
$var reg 32 h" imm_32 [31:0] $end
$upscope $end
$scope module INSTRUCTION_MEM $end
$var wire 32 i" instruction [31:0] $end
$var wire 32 j" pc [31:0] $end
$upscope $end
$scope module ME_WB $end
$var wire 1 ! clk $end
$var wire 1 7 me_aluOut_WB_memOut $end
$var wire 32 k" me_outAlu [31:0] $end
$var wire 32 l" me_outMem [31:0] $end
$var wire 5 m" me_rd [4:0] $end
$var wire 1 * me_writeReg $end
$var wire 1 " rst $end
$var reg 1 ( wb_aluOut_WB_memOut $end
$var reg 32 n" wb_outAlu [31:0] $end
$var reg 32 o" wb_outMem [31:0] $end
$var reg 5 p" wb_rd [4:0] $end
$var reg 1 # wb_writeReg $end
$upscope $end
$scope module MUX_EX_A $end
$var wire 32 q" b [31:0] $end
$var wire 1 \ signal $end
$var wire 32 r" out [31:0] $end
$var wire 32 s" a [31:0] $end
$upscope $end
$scope module MUX_EX_B $end
$var wire 32 t" b [31:0] $end
$var wire 32 u" c [31:0] $end
$var wire 2 v" signal [1:0] $end
$var wire 32 w" out [31:0] $end
$var wire 32 x" a [31:0] $end
$upscope $end
$scope module MUX_FORWARD_A $end
$var wire 32 y" a [31:0] $end
$var wire 32 z" b [31:0] $end
$var wire 2 {" signal [1:0] $end
$var wire 32 |" out [31:0] $end
$var wire 32 }" c [31:0] $end
$upscope $end
$scope module MUX_FORWARD_B $end
$var wire 32 ~" a [31:0] $end
$var wire 32 !# b [31:0] $end
$var wire 2 "# signal [1:0] $end
$var wire 32 ## out [31:0] $end
$var wire 32 $# c [31:0] $end
$upscope $end
$scope module MUX_WB $end
$var wire 32 %# a [31:0] $end
$var wire 32 &# b [31:0] $end
$var wire 1 ( signal $end
$var wire 32 '# out [31:0] $end
$upscope $end
$scope module MUX_WB_DATA $end
$var wire 32 (# a [31:0] $end
$var wire 32 )# b [31:0] $end
$var wire 1 P signal $end
$var wire 32 *# out [31:0] $end
$upscope $end
$scope module NEXT_PC $end
$var wire 1 6 condition_branch $end
$var wire 32 +# pc4 [31:0] $end
$var wire 32 ,# pcImm [31:0] $end
$var wire 2 -# pcImm_NEXTPC_rs1Imm [1:0] $end
$var wire 32 .# rs1Imm [31:0] $end
$var reg 1 S flush $end
$var reg 32 /# next_pc [31:0] $end
$upscope $end
$scope module PC $end
$var wire 1 ! clk $end
$var wire 1 S flush $end
$var wire 32 0# next_pc [31:0] $end
$var wire 1 ) pause $end
$var wire 1 " rst $end
$var reg 32 1# pc [31:0] $end
$upscope $end
$scope module REG_FILE $end
$var wire 1 ! clk $end
$var wire 5 2# rs1 [4:0] $end
$var wire 5 3# rs2 [4:0] $end
$var wire 1 " rst $end
$var wire 5 4# target_reg [4:0] $end
$var wire 32 5# write_rd_data [31:0] $end
$var wire 1 # write_reg $end
$var reg 32 6# read_rs1_data [31:0] $end
$var reg 32 7# read_rs2_data [31:0] $end
$scope begin $ivl_for_loop0 $end
$var integer 32 8# i [31:0] $end
$upscope $end
$upscope $end
$upscope $end
$upscope $end
$enddefinitions $end
$comment Show the parameter values. $end
$dumpall
$end
#0
$dumpvars
b100000 8#
bx 7#
bx 6#
bx 5#
bx 4#
bx 3#
bx 2#
bx 1#
bx 0#
bx /#
bx .#
bx -#
bx ,#
bx +#
bx *#
bx )#
bx (#
bx '#
bx &#
bx %#
bx $#
bx ##
bx "#
bx !#
bx ~"
bx }"
bx |"
bx {"
bx z"
bx y"
bx x"
bx w"
bx v"
b100 u"
bx t"
bx s"
bx r"
bx q"
bx p"
bx o"
bx n"
bx m"
bx l"
bx k"
bx j"
bx i"
bx h"
bx g"
bx f"
bx e"
bx d"
bx c"
bx b"
bx a"
bx `"
bx _"
bx ^"
bx ]"
bx \"
bx ["
bx Z"
bx Y"
bx X"
bx W"
bx V"
bx U"
bx T"
bx S"
bx R"
bx Q"
bx P"
bx O"
bx N"
bx M"
bx L"
bx K"
bx J"
bx I"
bx H"
bx G"
bx F"
bx E"
bx D"
bx C"
bx B"
bx A"
bx @"
bx ?"
bx >"
bx ="
bx <"
bx ;"
bx :"
bx 9"
bx 8"
bx 7"
bx 6"
bx 5"
bx 4"
bx 3"
bx 2"
bx 1"
bx 0"
bx /"
bx ."
bx -"
bx ,"
bx +"
bx *"
bx )"
bx ("
bx '"
bx &"
bx %"
bx $"
bx #"
bx ""
bx !"
bx ~
bx }
bx |
bx {
bx z
bx y
bx x
bx w
bx v
bx u
bx t
bx s
bx r
bx q
bx p
bx o
bx n
bx m
bx l
bx k
xj
bx i
xh
bx g
bx f
bx e
bx d
bx c
bx b
bx a
bx `
bx _
bx ^
bx ]
x\
bx [
bx Z
bx Y
bx X
bx W
bx V
bx U
xT
xS
bx R
bx Q
xP
xO
bx N
bx M
bx L
bx K
bx J
bx I
bx H
bx G
bx F
bx E
bx D
bx C
bx B
xA
bx @
bx ?
bx >
bx =
x<
bx ;
bx :
bx 9
bx 8
x7
x6
bx 5
bx 4
bx 3
bx 2
bx 1
bx 0
bx /
bx .
bx -
bx ,
bx +
x*
x)
x(
bx '
bx &
bx %
bx $
x#
0"
0!
$end
#5000
1!
#10000
0!
1"
#15000
b11111110000000010000000100010011 ;
b11111110000000010000000100010011 c"
b11111110000000010000000100010011 i"
b1100000 :
b1100000 /#
b1100000 0#
b1100000 8
b1100000 k
b1100000 +#
b1011100 9
b1011100 l
b1011100 b"
b1011100 j"
b1011100 1#
b0 f
b0 t
b0 r"
b0 [
b0 q
b0 ("
b0 J
b0 U"
b0 h"
b0 V
b0 *"
b0 x"
b0 ##
b0 W
b0 m
b0 s"
b0 |"
b0 N
b0 y
b0 J"
b0 M
b0 z
b0 f"
b0 F
b0 {
b0 K"
b0 D
b0 |
b0 M"
b0 =
b0 ~
b0 Q"
b1 >
b1 }
b1 P"
0A
0O
1<
b0 ?
b0 R"
b0 7#
b0 B
b0 S"
b0 6#
b0 $
b0 }"
b0 $#
b0 '#
b0 )#
b0 5#
b0 ,
b0 ""
b0 *#
0S
b0 4
b0 %"
b0 l"
0P
b0 Q
b0 >"
b0 "#
b0 R
b0 ="
b0 {"
b0 b
b0 p
b0 '"
0)
b0 e
b0 r
b0 w"
b0 d
b0 u
b0 &"
0h
b0 K
b0 w
b0 H"
b0 L
b0 x
b0 I"
b0 E
b0 E"
b0 L"
b0 @
b0 ?"
b0 C"
b0 O"
b0 3#
b0 C
b0 @"
b0 D"
b0 N"
b0 2#
b10011 H
b10011 v
b10011 F"
b0 %
b0 :"
b0 p"
b0 4#
b0 '
b0 n"
b0 %#
b0 &
b0 o"
b0 &#
1#
0(
b0 .
b0 5"
b0 9"
b0 1
b0 2"
b0 8"
b0 m"
b0 -
b0 6"
b0 (#
b0 5
b0 $"
b0 /"
b0 k"
b0 z"
b0 !#
b0 /
b0 4"
b0 .#
b0 3
b0 0"
b0 ,#
06
b0 2
b0 1"
b0 -#
b0 0
b0 #"
b0 3"
b0 +
b0 !"
b0 7"
1*
07
b0 Z
b0 +"
b0 ;"
b0 ^"
b0 ^
b0 <"
b0 \"
b0 `
b0 -"
b0 B"
b0 Z"
b0 g
b0 o
b0 W"
b0 t"
b0 Y
b0 _"
b0 ~"
b0 ]
b0 ]"
b0 y"
b0 c
b0 n
b0 X"
b0 q"
b0 a
b0 ."
b0 Y"
b0 _
b0 ,"
b0 A"
b0 ["
b0 U
b0 )"
b0 a"
1T
b1 X
b1 `"
b1 v"
0\
0j
b0 i
b0 s
b0 V"
b10011 I
b10011 G"
b10011 d"
b10011 g"
b0 G
b0 T"
b0 e"
1!
#20000
0!
0"
#25000
b10000000 B
b10000000 S"
b10000000 6#
b100010010111000100011 ;
b100010010111000100011 c"
b100010010111000100011 i"
b1100100 :
b1100100 /#
b1100100 0#
b1111111 K
b1111111 w
b1111111 H"
b10 E
b10 E"
b10 L"
b10 C
b10 @"
b10 D"
b10 N"
b10 2#
b11111111111111111111111111100000 J
b11111111111111111111111111100000 U"
b11111111111111111111111111100000 h"
b1100100 8
b1100100 k
b1100100 +#
b1100000 9
b1100000 l
b1100000 b"
b1100000 j"
b1100000 1#
b11111110000000010000000100010011 I
b11111110000000010000000100010011 G"
b11111110000000010000000100010011 d"
b11111110000000010000000100010011 g"
b1011100 G
b1011100 T"
b1011100 e"
1!
#30000
0!
#35000
b1100000 d
b1100000 u
b1100000 &"
b11111111111111111111111111100000 e
b11111111111111111111111111100000 r
b11111111111111111111111111100000 w"
b10000000 f
b10000000 t
b10000000 r"
b1 =
b1 ~
b1 Q"
b10 M
b10 z
b10 f"
0<
b10000000 W
b10000000 m
b10000000 s"
b10000000 |"
b1100000 [
b1100000 q
b1100000 ("
b111100 b
b111100 p
b111100 '"
b0 K
b0 w
b0 H"
b10 L
b10 x
b10 I"
b11100 E
b11100 E"
b11100 L"
b1 @
b1 ?"
b1 C"
b1 O"
b1 3#
b100011 H
b100011 v
b100011 F"
b11100 J
b11100 U"
b11100 h"
b100000010010110000100011 ;
b100000010010110000100011 c"
b100000010010110000100011 i"
b1101000 :
b1101000 /#
b1101000 0#
b10 ^
b10 <"
b10 \"
b10 `
b10 -"
b10 B"
b10 Z"
b11111111111111111111111111100000 g
b11111111111111111111111111100000 o
b11111111111111111111111111100000 W"
b11111111111111111111111111100000 t"
b10000000 ]
b10000000 ]"
b10000000 y"
b1011100 c
b1011100 n
b1011100 X"
b1011100 q"
b100010010111000100011 I
b100010010111000100011 G"
b100010010111000100011 d"
b100010010111000100011 g"
b1100000 G
b1100000 T"
b1100000 e"
b1101000 8
b1101000 k
b1101000 +#
b1100100 9
b1100100 l
b1100100 b"
b1100100 j"
b1100100 1#
1!
#40000
0!
#45000
b1111100 d
b1111100 u
b1111100 &"
b1100000 f
b1100000 t
b1100000 r"
b11100 e
b11100 r
b11100 w"
b1100000 W
b1100000 m
b1100000 s"
b1100000 |"
b10000000010000010000010011 ;
b10000000010000010000010011 c"
b10000000010000010000010011 i"
b11000 E
b11000 E"
b11000 L"
b1000 @
b1000 ?"
b1000 C"
b1000 O"
b1000 3#
b11000 J
b11000 U"
b11000 h"
b1111100 [
b1111100 q
b1111100 ("
b1111100 b
b1111100 p
b1111100 '"
b1 R
b1 ="
b1 {"
b1101100 :
b1101100 /#
b1101100 0#
b1101100 8
b1101100 k
b1101100 +#
b1101000 9
b1101000 l
b1101000 b"
b1101000 j"
b1101000 1#
b100000010010110000100011 I
b100000010010110000100011 G"
b100000010010110000100011 d"
b100000010010110000100011 g"
b1100100 G
b1100100 T"
b1100100 e"
b1 Z
b1 +"
b1 ;"
b1 ^"
b11100 `
b11100 -"
b11100 B"
b11100 Z"
b11100 g
b11100 o
b11100 W"
b11100 t"
b1100000 c
b1100000 n
b1100000 X"
b1100000 q"
b1 U
b1 )"
b1 a"
0T
b10 1
b10 2"
b10 8"
b10 m"
b1100000 5
b1100000 $"
b1100000 /"
b1100000 k"
b1100000 z"
b1100000 !#
b1100000 /
b1100000 4"
b1100000 .#
b111100 3
b111100 0"
b111100 ,#
1!
#50000
0!
#55000
b1100000 f
b1100000 t
b1100000 r"
b1111000 d
b1111000 u
b1111000 &"
b1100000 W
b1100000 m
b1100000 s"
b1100000 |"
b11000 e
b11000 r
b11000 w"
b0 M
b0 z
b0 f"
b0 =
b0 ~
b0 Q"
1<
b1100000 B
b1100000 S"
b1100000 6#
b1100000 $
b1100000 }"
b1100000 $#
b1100000 '#
b1100000 )#
b1100000 5#
b10 R
b10 ="
b10 {"
b1111000 [
b1111000 q
b1111000 ("
b1 K
b1 w
b1 H"
b0 L
b0 x
b0 I"
b1000 E
b1000 E"
b1000 L"
b0 @
b0 ?"
b0 C"
b0 O"
b0 3#
b10011 H
b10011 v
b10011 F"
b100000 J
b100000 U"
b100000 h"
b100000000011110010011 ;
b100000000011110010011 c"
b100000000011110010011 i"
b1110000 :
b1110000 /#
b1110000 0#
b10 %
b10 :"
b10 p"
b10 4#
b1100000 '
b1100000 n"
b1100000 %#
b1 .
b1 5"
b1 9"
b11100 1
b11100 2"
b11100 8"
b11100 m"
b1111100 5
b1111100 $"
b1111100 /"
b1111100 k"
b1111100 z"
b1111100 !#
b1111100 /
b1111100 4"
b1111100 .#
b1111100 3
b1111100 0"
b1111100 ,#
b1 +
b1 !"
b1 7"
0*
b1000 Z
b1000 +"
b1000 ;"
b1000 ^"
b11000 `
b11000 -"
b11000 B"
b11000 Z"
b11000 g
b11000 o
b11000 W"
b11000 t"
b1100100 c
b1100100 n
b1100100 X"
b1100100 q"
b10000000010000010000010011 I
b10000000010000010000010011 G"
b10000000010000010000010011 d"
b10000000010000010000010011 g"
b1101000 G
b1101000 T"
b1101000 e"
b1110000 8
b1110000 k
b1110000 +#
b1101100 9
b1101100 l
b1101100 b"
b1101100 j"
b1101100 1#
1!
#60000
0!
#65000
b10000000 d
b10000000 u
b10000000 &"
b0 B
b0 S"
b0 6#
b100000 e
b100000 r
b100000 w"
b11111110111101000010011000100011 ;
b11111110111101000010011000100011 c"
b11111110111101000010011000100011 i"
b0 K
b0 w
b0 H"
b1111 E
b1111 E"
b1111 L"
b1 @
b1 ?"
b1 C"
b1 O"
b1 3#
b0 C
b0 @"
b0 D"
b0 N"
b0 2#
b1 J
b1 U"
b1 h"
b10000000 [
b10000000 q
b10000000 ("
b10001000 b
b10001000 p
b10001000 '"
b1110100 :
b1110100 /#
b1110100 0#
b1111100 $
b1111100 }"
b1111100 $#
b1111100 '#
b1111100 )#
b1111100 5#
b0 R
b0 ="
b0 {"
b1110100 8
b1110100 k
b1110100 +#
b1110000 9
b1110000 l
b1110000 b"
b1110000 j"
b1110000 1#
b100000000011110010011 I
b100000000011110010011 G"
b100000000011110010011 d"
b100000000011110010011 g"
b1101100 G
b1101100 T"
b1101100 e"
b0 Z
b0 +"
b0 ;"
b0 ^"
b1000 `
b1000 -"
b1000 B"
b1000 Z"
b100000 g
b100000 o
b100000 W"
b100000 t"
b1100000 ]
b1100000 ]"
b1100000 y"
b1101000 c
b1101000 n
b1101000 X"
b1101000 q"
b0 U
b0 )"
b0 a"
1T
b1000 .
b1000 5"
b1000 9"
b11000 1
b11000 2"
b11000 8"
b11000 m"
b1111000 5
b1111000 $"
b1111000 /"
b1111000 k"
b1111000 z"
b1111000 !#
b1111000 /
b1111000 4"
b1111000 .#
b11100 %
b11100 :"
b11100 p"
b11100 4#
b1111100 '
b1111100 n"
b1111100 %#
0#
1!
#70000
0!
#75000
b1 d
b1 u
b1 &"
b1 e
b1 r
b1 w"
b0 f
b0 t
b0 r"
b1 =
b1 ~
b1 Q"
b10 M
b10 z
b10 f"
0<
b1111000 $
b1111000 }"
b1111000 $#
b1111000 '#
b1111000 )#
b1111000 5#
b0 W
b0 m
b0 s"
b0 |"
b1 [
b1 q
b1 ("
b1101101 b
b1101101 p
b1101101 '"
b1111111 K
b1111111 w
b1111111 H"
b10 L
b10 x
b10 I"
b1100 E
b1100 E"
b1100 L"
b1111 @
b1111 ?"
b1111 C"
b1111 O"
b1111 3#
b1000 C
b1000 @"
b1000 D"
b1000 N"
b1000 2#
b100011 H
b100011 v
b100011 F"
b11111111111111111111111111101100 J
b11111111111111111111111111101100 U"
b11111111111111111111111111101100 h"
b11111110110001000000011110010011 ;
b11111110110001000000011110010011 c"
b11111110110001000000011110010011 i"
b1111000 :
b1111000 /#
b1111000 0#
b11000 %
b11000 :"
b11000 p"
b11000 4#
b1111000 '
b1111000 n"
b1111000 %#
b0 .
b0 5"
b0 9"
b1000 1
b1000 2"
b1000 8"
b1000 m"
b10000000 5
b10000000 $"
b10000000 /"
b10000000 k"
b10000000 z"
b10000000 !#
b10000000 /
b10000000 4"
b10000000 .#
b10001000 3
b10001000 0"
b10001000 ,#
b0 +
b0 !"
b0 7"
1*
b1 Z
b1 +"
b1 ;"
b1 ^"
b0 ^
b0 <"
b0 \"
b1111 `
b1111 -"
b1111 B"
b1111 Z"
b1 g
b1 o
b1 W"
b1 t"
b0 ]
b0 ]"
b0 y"
b1101100 c
b1101100 n
b1101100 X"
b1101100 q"
b11111110111101000010011000100011 I
b11111110111101000010011000100011 G"
b11111110111101000010011000100011 d"
b11111110111101000010011000100011 g"
b1110000 G
b1110000 T"
b1110000 e"
b1111000 8
b1111000 k
b1111000 +#
b1110100 9
b1110100 l
b1110100 b"
b1110100 j"
b1110100 1#
1!
#80000
0!
#85000
b1101100 d
b1101100 u
b1101100 &"
b10000000 f
b10000000 t
b10000000 r"
b0 M
b0 z
b0 f"
b0 =
b0 ~
b0 Q"
1<
b11111111111111111111111111101100 e
b11111111111111111111111111101100 r
b11111111111111111111111111101100 w"
b1 V
b1 *"
b1 x"
b1 ##
b10000000 W
b10000000 m
b10000000 s"
b10000000 |"
b1111000010100010011 ;
b1111000010100010011 c"
b1111000010100010011 i"
b0 L
b0 x
b0 I"
b1111 E
b1111 E"
b1111 L"
b1100 @
b1100 ?"
b1100 C"
b1100 O"
b1100 3#
b10011 H
b10011 v
b10011 F"
b11111111111111111111111111101100 J
b11111111111111111111111111101100 U"
b11111111111111111111111111101100 h"
b1101100 [
b1101100 q
b1101100 ("
b1011100 b
b1011100 p
b1011100 '"
b1111100 :
b1111100 /#
b1111100 0#
b10000000 B
b10000000 S"
b10000000 6#
b10000000 $
b10000000 }"
b10000000 $#
b10000000 '#
b10000000 )#
b10000000 5#
b1 Q
b1 >"
b1 "#
b10 R
b10 ="
b10 {"
b1111100 8
b1111100 k
b1111100 +#
b1111000 9
b1111000 l
b1111000 b"
b1111000 j"
b1111000 1#
b11111110110001000000011110010011 I
b11111110110001000000011110010011 G"
b11111110110001000000011110010011 d"
b11111110110001000000011110010011 g"
b1110100 G
b1110100 T"
b1110100 e"
b1111 Z
b1111 +"
b1111 ;"
b1111 ^"
b1000 ^
b1000 <"
b1000 \"
b1100 `
b1100 -"
b1100 B"
b1100 Z"
b11111111111111111111111111101100 g
b11111111111111111111111111101100 o
b11111111111111111111111111101100 W"
b11111111111111111111111111101100 t"
b1110000 c
b1110000 n
b1110000 X"
b1110000 q"
b1 U
b1 )"
b1 a"
0T
b1 .
b1 5"
b1 9"
b1111 1
b1111 2"
b1111 8"
b1111 m"
b1 5
b1 $"
b1 /"
b1 k"
b1 z"
b1 !#
b1 /
b1 4"
b1 .#
b1101101 3
b1101101 0"
b1101101 ,#
b1000 %
b1000 :"
b1000 p"
b1000 4#
b10000000 '
b10000000 n"
b10000000 %#
1#
1!
#90000
0!
#95000
b0 V
b0 *"
b0 x"
b0 ##
b1 B
b1 S"
b1 6#
b1 $
b1 }"
b1 $#
b1 '#
b1 )#
b1 5#
b1 ,
b1 ""
b1 *#
1P
b0 Q
b0 >"
b0 "#
b0 R
b0 ="
b0 {"
b1100000 b
b1100000 p
b1100000 '"
b0 K
b0 w
b0 H"
b1010 E
b1010 E"
b1010 L"
b0 @
b0 ?"
b0 C"
b0 O"
b0 3#
b1111 C
b1111 @"
b1111 D"
b1111 N"
b1111 2#
b0 J
b0 U"
b0 h"
b11111000010111111111000011101111 ;
b11111000010111111111000011101111 c"
b11111000010111111111000011101111 i"
b10000000 :
b10000000 /#
b10000000 0#
b1111 %
b1111 :"
b1111 p"
b1111 4#
b1 '
b1 n"
b1 %#
b1111 .
b1111 5"
b1111 9"
b1100 1
b1100 2"
b1100 8"
b1100 m"
b1 -
b1 6"
b1 (#
b1101100 5
b1101100 $"
b1101100 /"
b1101100 k"
b1101100 z"
b1101100 !#
b1101100 /
b1101100 4"
b1101100 .#
b1011100 3
b1011100 0"
b1011100 ,#
b1 +
b1 !"
b1 7"
0*
b1100 Z
b1100 +"
b1100 ;"
b1100 ^"
b1111 `
b1111 -"
b1111 B"
b1111 Z"
b10000000 ]
b10000000 ]"
b10000000 y"
b1110100 c
b1110100 n
b1110100 X"
b1110100 q"
b0 U
b0 )"
b0 a"
1T
b1111000010100010011 I
b1111000010100010011 G"
b1111000010100010011 d"
b1111000010100010011 g"
b1111000 G
b1111000 T"
b1111000 e"
b10000000 8
b10000000 k
b10000000 +#
b1111100 9
b1111100 l
b1111100 b"
b1111100 j"
b1111100 1#
1!
#100000
0!
